module gitlab.com/mironet/magnolia-backup

go 1.21

require (
	cloud.google.com/go v0.110.4 // indirect
	cloud.google.com/go/storage v1.30.1
	github.com/cenkalti/backoff/v4 v4.1.0
	github.com/fsnotify/fsnotify v1.4.9 // indirect
	github.com/go-test/deep v1.0.7
	github.com/gorilla/handlers v1.5.1
	github.com/gorilla/mux v1.8.0
	github.com/hashicorp/go-uuid v1.0.2
	github.com/klauspost/compress v1.16.5
	github.com/kr/text v0.2.0 // indirect
	github.com/magiconair/properties v1.8.4 // indirect
	github.com/minio/md5-simd v1.1.2 // indirect
	github.com/minio/minio-go/v7 v7.0.59
	github.com/minio/sha256-simd v1.0.1 // indirect
	github.com/mitchellh/go-homedir v1.1.0
	github.com/mitchellh/mapstructure v1.4.1 // indirect
	github.com/niemeyer/pretty v0.0.0-20200227124842-a10e7caefd8e // indirect
	github.com/pelletier/go-toml v1.8.1 // indirect
	github.com/prometheus/client_golang v1.14.0
	github.com/prometheus/common v0.37.0 // indirect
	github.com/prometheus/procfs v0.8.0 // indirect
	github.com/robfig/cron/v3 v3.0.1
	github.com/sirupsen/logrus v1.9.2
	github.com/spf13/afero v1.5.1 // indirect
	github.com/spf13/cast v1.3.1 // indirect
	github.com/spf13/cobra v1.1.3
	github.com/spf13/jwalterweatherman v1.1.0 // indirect
	github.com/spf13/viper v1.7.1
	go.opencensus.io v0.24.0 // indirect
	golang.org/x/oauth2 v0.10.0
	golang.org/x/sys v0.18.0 // indirect
	golang.org/x/time v0.0.0-20210220033141-f8bda1e9f3ba
	google.golang.org/api v0.126.0
	google.golang.org/genproto v0.0.0-20230711160842-782d3b101e98 // indirect
	gopkg.in/check.v1 v1.0.0-20200227125254-8fa46927fb4f // indirect
	gopkg.in/ini.v1 v1.67.0 // indirect
)

require (
	github.com/beorn7/perks v1.0.1 // indirect
	github.com/cespare/xxhash/v2 v2.2.0 // indirect
	github.com/felixge/httpsnoop v1.0.1 // indirect
	github.com/golang/groupcache v0.0.0-20210331224755-41bb18bfe9da // indirect
	github.com/golang/protobuf v1.5.3 // indirect
	github.com/google/uuid v1.3.0 // indirect
	github.com/googleapis/gax-go/v2 v2.11.0 // indirect
	github.com/hashicorp/hcl v1.0.0 // indirect
	github.com/inconshreveable/mousetrap v1.0.0 // indirect
	github.com/json-iterator/go v1.1.12 // indirect
	github.com/klauspost/cpuid/v2 v2.2.4 // indirect
	github.com/lib/pq v1.10.4
	github.com/matttproud/golang_protobuf_extensions v1.0.1 // indirect
	github.com/modern-go/concurrent v0.0.0-20180306012644-bacd9c7ef1dd // indirect
	github.com/modern-go/reflect2 v1.0.2 // indirect
	github.com/oklog/ulid/v2 v2.0.2
	github.com/prometheus/client_model v0.3.0
	github.com/rs/xid v1.5.0 // indirect
	github.com/spf13/pflag v1.0.5
	github.com/subosito/gotenv v1.2.0 // indirect
	golang.org/x/text v0.14.0 // indirect
	google.golang.org/appengine v1.6.7 // indirect
	google.golang.org/grpc v1.58.3 // indirect
	google.golang.org/protobuf v1.33.0 // indirect
)

require (
	github.com/Azure/azure-sdk-for-go/sdk/azcore v1.3.0
	github.com/pkg/errors v0.9.1
	github.com/stretchr/testify v1.8.1
	github.com/wal-g/tracelog v0.0.0-20190824100002-0ab2b054ff30
	github.com/wal-g/wal-g v1.1.1
	golang.org/x/exp v0.0.0-20230522175609-2e198f4a06a1
	golang.org/x/net v0.23.0
	golang.org/x/sync v0.3.0
	gopkg.in/yaml.v2 v2.4.0
)

require (
	cloud.google.com/go/compute v1.21.0 // indirect
	cloud.google.com/go/compute/metadata v0.2.3 // indirect
	cloud.google.com/go/iam v1.1.1 // indirect
	github.com/Azure/azure-sdk-for-go/sdk/internal v1.1.2 // indirect
	github.com/davecgh/go-spew v1.1.1 // indirect
	github.com/google/go-cmp v0.5.9 // indirect
	github.com/google/s2a-go v0.1.4 // indirect
	github.com/googleapis/enterprise-certificate-proxy v0.2.3 // indirect
	github.com/pmezard/go-difflib v1.0.0 // indirect
	golang.org/x/crypto v0.21.0 // indirect
	golang.org/x/xerrors v0.0.0-20220907171357-04be3eba64a2 // indirect
	google.golang.org/genproto/googleapis/api v0.0.0-20230711160842-782d3b101e98 // indirect
	google.golang.org/genproto/googleapis/rpc v0.0.0-20230711160842-782d3b101e98 // indirect
	gopkg.in/yaml.v3 v3.0.1 // indirect
)

require (
	github.com/Azure/azure-sdk-for-go/sdk/storage/azblob v1.0.0
	github.com/dustin/go-humanize v1.0.1 // indirect
	gopkg.in/dnaeon/go-vcr.v3 v3.1.2
)
